[{
  "id" :1,
  "title": "Brown eggs",
  "type": "dairy",
  "description": "Raw organic brown eggs in a basket",
  "filename": "prod1.png",
  "height": 340,
  "width": 340,"badge":"new",
  "price": 28.1,
  "rating": 4
}, {
  "id" :2,
  "title": "Sweet fresh stawberry",
  "type": "fruit",
  "description": "Sweet fresh stawberry on the wooden table",
  "filename": "prod2.png",
  "height": 340,
  "width": 340,"badge":"new",
  "price": 29.45,
  "rating": 4
}, {
  "id" :3,
  "title": "Asparagus",
  "type": "vegetable",
  "description": "Asparagus with ham on the wooden table",
  "filename": "prod3.png",
  "height": 340,
  "width": 340,"badge":"new",
  "price": 18.95,
  "rating": 3
}, {
  "id" :4,
  "title": "Green smoothie",
  "type": "dairy",
  "description": "Glass of green smoothie with quail egg's yolk, served with cocktail tube, green apple and baby spinach leaves over tin surface.",
  "filename": "prod4.png",
  "height": 340,
  "width": 340,"badge":"new",
  "price": 17.68,
  "rating": 4
}, {
  "id" :5,
  "title": "Raw legums",
  "type": "vegetable",
  "description": "Raw legums on the wooden table",
  "filename": "prod1.png",
  "height": 340,
  "width": 340,"badge":"new",
  "price": 17.11,
  "rating": 2
}, {
  "id" :6,
  "title": "Baking cake",
  "type": "dairy",
  "description": "Baking cake in rural kitchen - dough  recipe ingredients (eggs, flour, sugar) on vintage wooden table from above.",
  "filename": "prod2.png",
  "height": 340,
  "width": 340,"badge":"new",
  "price": 11.14,
  "rating": 4
}, {
  "id" :7,
  "title": "Pesto with basil",
  "type": "vegetable",
  "description": "Italian traditional pesto with basil, chesse and oil",
  "filename": "prod3.png",
  "height": 340,
  "width": 340,"badge":"new",
  "price": 18.19,
  "rating": 2
}, {
  "id" :8,
  "title": "Hazelnut in black ceramic bowl",
  "type": "vegetable",
  "description": "Hazelnut in black ceramic bowl on old wooden background. forest wealth. rustic style. selective focus",
  "filename": "prod4.png",
  "height": 340,
  "width": 340,"badge":"new",
  "price": 27.35,
  "rating": 5
}, {
  "id" :9,
  "title": "Fresh stawberry",
  "type": "fruit",
  "description": "Sweet fresh stawberry on the wooden table",
  "filename": "prod1.png",
  "height": 340,
  "width": 340,"badge":"new",
  "price": 28.59,
  "rating": 4
}, {
  "id" :10,
  "title": "Lemon and salt",
  "type": "fruit",
  "description": "Rosemary, lemon and salt on the table",
  "filename": "prod2.png",
  "height": 340,
  "width": 340,"badge":"new",
  "price": 15.79,
  "rating": 5
}, {
  "id" :11,
  "title": "Homemade bread",
  "type": "bakery",
  "description": "Homemade bread",
  "filename": "prod3.png",
  "height": 340,
  "width": 340,"badge":"new",
  "price": 17.48,
  "rating": 3
}, {
  "id" :12,
  "title": "Legums",
  "type": "vegetable",
  "description": "Cooked legums on the wooden table",
  "filename": "prod4.png",
  "height": 340,
  "width": 340,"badge":"new",
  "price": 14.77,
  "rating": 5
}, {
  "id" :13,
  "title": "Fresh tomato",
  "type": "vegetable",
  "description": "Fresh tomato juice with basil",
  "filename": "prod1.png",
  "height": 340,
  "width": 340,"badge":"new",
  "price": 16.3,
  "rating": 2
}, {
  "id" :14,
  "title": "Healthy breakfast",
  "type": "fruit",
  "description": "Healthy breakfast set. rice cereal or porridge with berries and honey over rustic wood background",
  "filename": "prod2.png",
  "height": 340,
  "width": 340,"badge":"new",
  "price": 13.02,
  "rating": 2
}, {
  "id" :15,
  "title": "Green beans",
  "type": "vegetable",
  "description": "Raw organic green beans ready to eat",
  "filename": "prod3.png",
  "height": 340,
  "width": 340,"badge":"new",
  "price": 28.79,
  "rating": 1
}]